{
	"href": "https://api.spotify.com/v1/users/armental/playlists?offset=0&limit=20",
	"items": [
		{
			"collaborative": false,
			"external_urls": {
				"spotify": "http://open.spotify.com/user/armental/playlist/3DScVBBBvM3J11WiXRqXDg"
			},
			"href": "https://api.spotify.com/v1/users/armental/playlists/3DScVBBBvM3J11WiXRqXDg",
			"id": "3DScVBBBvM3J11WiXRqXDg",
			"images": [
				{
					"height": 640,
					"url": "https://i.scdn.co/image/3d0350e87152cdde35c5deba6877bb3959d2083e",
					"width": 640
				}
			],
			"name": "GROS SON",
			"owner": {
				"external_urls": {
					"spotify": "http://open.spotify.com/user/armental"
				},
				"href": "https://api.spotify.com/v1/users/armental",
				"id": "armental",
				"type": "user",
				"uri": "spotify:user:armental"
			},
			"public": false,
			"snapshot_id": "Rl4dG7WglOrKWpH/1eM+k6eY6QKXpleMZLw71FdbK91ff0EZapKnDYaO5A3xQ+TK",
			"tracks": {
				"href": "https://api.spotify.com/v1/users/armental/playlists/3DScVBBBvM3J11WiXRqXDg/tracks",
				"total": 1
			},
			"type": "playlist",
			"uri": "spotify:user:armental:playlist:3DScVBBBvM3J11WiXRqXDg"
		},
		{
			"collaborative": false,
			"external_urls": {
				"spotify": "http://open.spotify.com/user/armental/playlist/0dMT5GdeIq3UzrhpadKx7P"
			},
			"href": "https://api.spotify.com/v1/users/armental/playlists/0dMT5GdeIq3UzrhpadKx7P",
			"id": "0dMT5GdeIq3UzrhpadKx7P",
			"images": [
				{
					"height": 640,
					"url": "https://mosaic.scdn.co/640/34143984edbe7d40e1fc0f51bcd27d03a6bd88240d97c4d25f8f2d6ae3a1c3af22486812d8c04b68f4f7c6fb9d9dbdd077f5cc684db3af65dc60a8713c294000d8739af300d9a842934d6f7e090471c7",
					"width": 640
				},
				{
					"height": 300,
					"url": "https://mosaic.scdn.co/300/34143984edbe7d40e1fc0f51bcd27d03a6bd88240d97c4d25f8f2d6ae3a1c3af22486812d8c04b68f4f7c6fb9d9dbdd077f5cc684db3af65dc60a8713c294000d8739af300d9a842934d6f7e090471c7",
					"width": 300
				},
				{
					"height": 60,
					"url": "https://mosaic.scdn.co/60/34143984edbe7d40e1fc0f51bcd27d03a6bd88240d97c4d25f8f2d6ae3a1c3af22486812d8c04b68f4f7c6fb9d9dbdd077f5cc684db3af65dc60a8713c294000d8739af300d9a842934d6f7e090471c7",
					"width": 60
				}
			],
			"name": "DJ Cavalaire",
			"owner": {
				"external_urls": {
					"spotify": "http://open.spotify.com/user/armental"
				},
				"href": "https://api.spotify.com/v1/users/armental",
				"id": "armental",
				"type": "user",
				"uri": "spotify:user:armental"
			},
			"public": false,
			"snapshot_id": "sRFElIkXy5wbFli15gpnVeSaba22hdAdvSwH5A5QvqARnh3m8GTwx5PAbQVZUsUs",
			"tracks": {
				"href": "https://api.spotify.com/v1/users/armental/playlists/0dMT5GdeIq3UzrhpadKx7P/tracks",
				"total": 9
			},
			"type": "playlist",
			"uri": "spotify:user:armental:playlist:0dMT5GdeIq3UzrhpadKx7P"
		},
		{
			"collaborative": false,
			"external_urls": {
				"spotify": "http://open.spotify.com/user/armental/playlist/736XmPf5jve8tCmCpTMTSX"
			},
			"href": "https://api.spotify.com/v1/users/armental/playlists/736XmPf5jve8tCmCpTMTSX",
			"id": "736XmPf5jve8tCmCpTMTSX",
			"images": [
				{
					"height": 640,
					"url": "https://mosaic.scdn.co/640/a7830294681bce03d5d1033b4a98c38bc9dcaedc11b053259852b082e402ab8cc2f91d0beeeb53dbd8166a84dd1d18aa7564c774316f602e22ef367a18bc6b599b11b106d2f13df0e42f644ba1968824",
					"width": 640
				},
				{
					"height": 300,
					"url": "https://mosaic.scdn.co/300/a7830294681bce03d5d1033b4a98c38bc9dcaedc11b053259852b082e402ab8cc2f91d0beeeb53dbd8166a84dd1d18aa7564c774316f602e22ef367a18bc6b599b11b106d2f13df0e42f644ba1968824",
					"width": 300
				},
				{
					"height": 60,
					"url": "https://mosaic.scdn.co/60/a7830294681bce03d5d1033b4a98c38bc9dcaedc11b053259852b082e402ab8cc2f91d0beeeb53dbd8166a84dd1d18aa7564c774316f602e22ef367a18bc6b599b11b106d2f13df0e42f644ba1968824",
					"width": 60
				}
			],
			"name": "Party Mix",
			"owner": {
				"external_urls": {
					"spotify": "http://open.spotify.com/user/armental"
				},
				"href": "https://api.spotify.com/v1/users/armental",
				"id": "armental",
				"type": "user",
				"uri": "spotify:user:armental"
			},
			"public": true,
			"snapshot_id": "I7Gzy2S1PCXmZJywyfxXbVPRipK3XgGj4Jsotfv2oOx5YMpsF3QdUCFYGNTKpQNo",
			"tracks": {
				"href": "https://api.spotify.com/v1/users/armental/playlists/736XmPf5jve8tCmCpTMTSX/tracks",
				"total": 72
			},
			"type": "playlist",
			"uri": "spotify:user:armental:playlist:736XmPf5jve8tCmCpTMTSX"
		},
		{
			"collaborative": false,
			"external_urls": {
				"spotify": "http://open.spotify.com/user/sonymusicswitzerland/playlist/6l6CgObZMci5LdPLhNrjcX"
			},
			"href": "https://api.spotify.com/v1/users/sonymusicswitzerland/playlists/6l6CgObZMci5LdPLhNrjcX",
			"id": "6l6CgObZMci5LdPLhNrjcX",
			"images": [
				{
					"height": null,
					"url": "https://u.scdn.co/images/pl/default/55cd0654df82f5daf3f857cdbaa40ca3a199a5c1",
					"width": null
				}
			],
			"name": "CLASS WITH SASS",
			"owner": {
				"external_urls": {
					"spotify": "http://open.spotify.com/user/sonymusicswitzerland"
				},
				"href": "https://api.spotify.com/v1/users/sonymusicswitzerland",
				"id": "sonymusicswitzerland",
				"type": "user",
				"uri": "spotify:user:sonymusicswitzerland"
			},
			"public": false,
			"snapshot_id": "wSggeoFrZ4En5Mh7DWq8SKLn11IOUlQ+raseB94e7uzQv8XIl/rghlppflH6erCh",
			"tracks": {
				"href": "https://api.spotify.com/v1/users/sonymusicswitzerland/playlists/6l6CgObZMci5LdPLhNrjcX/tracks",
				"total": 84
			},
			"type": "playlist",
			"uri": "spotify:user:sonymusicswitzerland:playlist:6l6CgObZMci5LdPLhNrjcX"
		},
		{
			"collaborative": false,
			"external_urls": {
				"spotify": "http://open.spotify.com/user/armental/playlist/6z9V4wNJ1Yd2Tk05zev2sU"
			},
			"href": "https://api.spotify.com/v1/users/armental/playlists/6z9V4wNJ1Yd2Tk05zev2sU",
			"id": "6z9V4wNJ1Yd2Tk05zev2sU",
			"images": [
				{
					"height": 640,
					"url": "https://i.scdn.co/image/5da7231d4fe5f812cef41b1ef4712844a1b658ae",
					"width": 640
				}
			],
			"name": "Miami Horror – Illumination",
			"owner": {
				"external_urls": {
					"spotify": "http://open.spotify.com/user/armental"
				},
				"href": "https://api.spotify.com/v1/users/armental",
				"id": "armental",
				"type": "user",
				"uri": "spotify:user:armental"
			},
			"public": false,
			"snapshot_id": "clefxK1M/Rp4wskzpRrgaHswM0H1PjjGlq4xcFsfink1aeqCqUCvWxoMJKif2OWJ",
			"tracks": {
				"href": "https://api.spotify.com/v1/users/armental/playlists/6z9V4wNJ1Yd2Tk05zev2sU/tracks",
				"total": 12
			},
			"type": "playlist",
			"uri": "spotify:user:armental:playlist:6z9V4wNJ1Yd2Tk05zev2sU"
		},
		{
			"collaborative": false,
			"external_urls": {
				"spotify": "http://open.spotify.com/user/armental/playlist/41c08QHlBYZN4Q5UETu7gn"
			},
			"href": "https://api.spotify.com/v1/users/armental/playlists/41c08QHlBYZN4Q5UETu7gn",
			"id": "41c08QHlBYZN4Q5UETu7gn",
			"images": [
				{
					"height": 640,
					"url": "https://i.scdn.co/image/771400f126dbb0bac0cc89ceac19ceec2cfd4bc1",
					"width": 640
				}
			],
			"name": "Chassol – Ultrascores",
			"owner": {
				"external_urls": {
					"spotify": "http://open.spotify.com/user/armental"
				},
				"href": "https://api.spotify.com/v1/users/armental",
				"id": "armental",
				"type": "user",
				"uri": "spotify:user:armental"
			},
			"public": false,
			"snapshot_id": "S62aRzBcAk+ANTwfLT9vRyLbh//IRLr0UdLZLYzRN/WjmB8YB0mg7JBQdDZjPoiu",
			"tracks": {
				"href": "https://api.spotify.com/v1/users/armental/playlists/41c08QHlBYZN4Q5UETu7gn/tracks",
				"total": 13
			},
			"type": "playlist",
			"uri": "spotify:user:armental:playlist:41c08QHlBYZN4Q5UETu7gn"
		},
		{
			"collaborative": false,
			"external_urls": {
				"spotify": "http://open.spotify.com/user/c_thiebaut/playlist/3mC43AVw7rPh05qh63gFs9"
			},
			"href": "https://api.spotify.com/v1/users/c_thiebaut/playlists/3mC43AVw7rPh05qh63gFs9",
			"id": "3mC43AVw7rPh05qh63gFs9",
			"images": [
				{
					"height": 640,
					"url": "https://mosaic.scdn.co/640/d0f27955b77523d14a6a0596536a0a227854e372d5f34e8ab51c4430b05894cbb87a58d72c194fc86eff8d05b31476abf79a50c49337a0770d994cf4b9de597614b9b5764c486c27f5d32e7f36c32b5a",
					"width": 640
				},
				{
					"height": 300,
					"url": "https://mosaic.scdn.co/300/d0f27955b77523d14a6a0596536a0a227854e372d5f34e8ab51c4430b05894cbb87a58d72c194fc86eff8d05b31476abf79a50c49337a0770d994cf4b9de597614b9b5764c486c27f5d32e7f36c32b5a",
					"width": 300
				},
				{
					"height": 60,
					"url": "https://mosaic.scdn.co/60/d0f27955b77523d14a6a0596536a0a227854e372d5f34e8ab51c4430b05894cbb87a58d72c194fc86eff8d05b31476abf79a50c49337a0770d994cf4b9de597614b9b5764c486c27f5d32e7f36c32b5a",
					"width": 60
				}
			],
			"name": "MadeInFrance",
			"owner": {
				"external_urls": {
					"spotify": "http://open.spotify.com/user/c_thiebaut"
				},
				"href": "https://api.spotify.com/v1/users/c_thiebaut",
				"id": "c_thiebaut",
				"type": "user",
				"uri": "spotify:user:c_thiebaut"
			},
			"public": false,
			"snapshot_id": "ZuOdOD1glDnpsDhefCumORsTIGb2tRnvzeEe5bF1n4wAV84ogScmqwd2+jPLCAAt",
			"tracks": {
				"href": "https://api.spotify.com/v1/users/c_thiebaut/playlists/3mC43AVw7rPh05qh63gFs9/tracks",
				"total": 42
			},
			"type": "playlist",
			"uri": "spotify:user:c_thiebaut:playlist:3mC43AVw7rPh05qh63gFs9"
		},
		{
			"collaborative": false,
			"external_urls": {
				"spotify": "http://open.spotify.com/user/spotify/playlist/37i9dQZEVXbkcAf5uZ91zo"
			},
			"href": "https://api.spotify.com/v1/users/spotify/playlists/37i9dQZEVXbkcAf5uZ91zo",
			"id": "37i9dQZEVXbkcAf5uZ91zo",
			"images": [
				{
					"height": 300,
					"url": "https://i.scdn.co/image/a153b3b22072f76cd3bda29f6087c75698bc0b90",
					"width": 300
				}
			],
			"name": "Radar des sorties",
			"owner": {
				"external_urls": {
					"spotify": "http://open.spotify.com/user/spotify"
				},
				"href": "https://api.spotify.com/v1/users/spotify",
				"id": "spotify",
				"type": "user",
				"uri": "spotify:user:spotify"
			},
			"public": false,
			"snapshot_id": "K0vzEwYDHxDiN6WXWsV2+ccpqLqbhR9wJx0z8Ur1mFl7CzxqbnkSJM8Ze6YUHi92ronwG7jFHuE=",
			"tracks": {
				"href": "https://api.spotify.com/v1/users/spotify/playlists/37i9dQZEVXbkcAf5uZ91zo/tracks",
				"total": 30
			},
			"type": "playlist",
			"uri": "spotify:user:spotify:playlist:37i9dQZEVXbkcAf5uZ91zo"
		},
		{
			"collaborative": false,
			"external_urls": {
				"spotify": "http://open.spotify.com/user/spotify/playlist/37i9dQZEVXbrev5YP3Smxc"
			},
			"href": "https://api.spotify.com/v1/users/spotify/playlists/37i9dQZEVXbrev5YP3Smxc",
			"id": "37i9dQZEVXbrev5YP3Smxc",
			"images": [
				{
					"height": 300,
					"url": "https://i.scdn.co/image/e9239601a3461ad10fd6a5857d3cf4dc4dfbb7f2",
					"width": 300
				}
			],
			"name": "Radar des sorties",
			"owner": {
				"external_urls": {
					"spotify": "http://open.spotify.com/user/spotify"
				},
				"href": "https://api.spotify.com/v1/users/spotify",
				"id": "spotify",
				"type": "user",
				"uri": "spotify:user:spotify"
			},
			"public": false,
			"snapshot_id": "K0vzEwYDHxDiN6WXWsV2+TZsysoIpN+iEWyBtz/fH/vyvTZ/KYtH3Uw2Ln5A8lz/t+H2bnfRalA=",
			"tracks": {
				"href": "https://api.spotify.com/v1/users/spotify/playlists/37i9dQZEVXbrev5YP3Smxc/tracks",
				"total": 30
			},
			"type": "playlist",
			"uri": "spotify:user:spotify:playlist:37i9dQZEVXbrev5YP3Smxc"
		},
		{
			"collaborative": false,
			"external_urls": {
				"spotify": "http://open.spotify.com/user/spotifydiscover/playlist/707LmcmgB4tagVathNC9qB"
			},
			"href": "https://api.spotify.com/v1/users/spotifydiscover/playlists/707LmcmgB4tagVathNC9qB",
			"id": "707LmcmgB4tagVathNC9qB",
			"images": [
				{
					"height": null,
					"url": "https://u.scdn.co/images/pl/default/daea6d6bea05b0736bd51915e4528d2c55a791d0",
					"width": null
				}
			],
			"name": "Découvertes de la semaine",
			"owner": {
				"external_urls": {
					"spotify": "http://open.spotify.com/user/spotifydiscover"
				},
				"href": "https://api.spotify.com/v1/users/spotifydiscover",
				"id": "spotifydiscover",
				"type": "user",
				"uri": "spotify:user:spotifydiscover"
			},
			"public": false,
			"snapshot_id": "Fm9xR4RSd4Nkt2g3ZqDlNoe3ofi9H5DI3S+xT3WVqvzYgcfAfGPxMy8lKouIRVaA",
			"tracks": {
				"href": "https://api.spotify.com/v1/users/spotifydiscover/playlists/707LmcmgB4tagVathNC9qB/tracks",
				"total": 30
			},
			"type": "playlist",
			"uri": "spotify:user:spotifydiscover:playlist:707LmcmgB4tagVathNC9qB"
		},
		{
			"collaborative": false,
			"external_urls": {
				"spotify": "http://open.spotify.com/user/armental/playlist/0ounsVOvdqkQOO3VpwRGzP"
			},
			"href": "https://api.spotify.com/v1/users/armental/playlists/0ounsVOvdqkQOO3VpwRGzP",
			"id": "0ounsVOvdqkQOO3VpwRGzP",
			"images": [
				{
					"height": 640,
					"url": "https://mosaic.scdn.co/640/2dda07e9ed4cd4504bf156f10e229b5b68539021fd2c0afada3a2428cf3984751467504ea09193a1b1a1ce46a3fdf00ad9e75eb47cda936a43c414992a142a76cf3f2b674dea4a5ec9f7268994e1b545",
					"width": 640
				},
				{
					"height": 300,
					"url": "https://mosaic.scdn.co/300/2dda07e9ed4cd4504bf156f10e229b5b68539021fd2c0afada3a2428cf3984751467504ea09193a1b1a1ce46a3fdf00ad9e75eb47cda936a43c414992a142a76cf3f2b674dea4a5ec9f7268994e1b545",
					"width": 300
				},
				{
					"height": 60,
					"url": "https://mosaic.scdn.co/60/2dda07e9ed4cd4504bf156f10e229b5b68539021fd2c0afada3a2428cf3984751467504ea09193a1b1a1ce46a3fdf00ad9e75eb47cda936a43c414992a142a76cf3f2b674dea4a5ec9f7268994e1b545",
					"width": 60
				}
			],
			"name": "Favourite Songs",
			"owner": {
				"external_urls": {
					"spotify": "http://open.spotify.com/user/armental"
				},
				"href": "https://api.spotify.com/v1/users/armental",
				"id": "armental",
				"type": "user",
				"uri": "spotify:user:armental"
			},
			"public": false,
			"snapshot_id": "K01Nytk87aVnWX31/YBA7fVEykAH3ptnQ3HCRM4zUm1UQPzMQ7pAi+usvnIu80g5",
			"tracks": {
				"href": "https://api.spotify.com/v1/users/armental/playlists/0ounsVOvdqkQOO3VpwRGzP/tracks",
				"total": 748
			},
			"type": "playlist",
			"uri": "spotify:user:armental:playlist:0ounsVOvdqkQOO3VpwRGzP"
		},
		{
			"collaborative": false,
			"external_urls": {
				"spotify": "http://open.spotify.com/user/sonymusicnl/playlist/02pFLPtnGpXnSfNKhplVSw"
			},
			"href": "https://api.spotify.com/v1/users/sonymusicnl/playlists/02pFLPtnGpXnSfNKhplVSw",
			"id": "02pFLPtnGpXnSfNKhplVSw",
			"images": [
				{
					"height": null,
					"url": "https://u.scdn.co/images/pl/default/bf808c5d75a4cae7ee1feab6e78b28955523d41c",
					"width": null
				}
			],
			"name": "Deep Chill",
			"owner": {
				"external_urls": {
					"spotify": "http://open.spotify.com/user/sonymusicnl"
				},
				"href": "https://api.spotify.com/v1/users/sonymusicnl",
				"id": "sonymusicnl",
				"type": "user",
				"uri": "spotify:user:sonymusicnl"
			},
			"public": false,
			"snapshot_id": "DIap78icPfOvG+0e23mX46ud2impNIE2XpGsAPdxU/BFSnnj0a5HlpO7Xy3g4Oea",
			"tracks": {
				"href": "https://api.spotify.com/v1/users/sonymusicnl/playlists/02pFLPtnGpXnSfNKhplVSw/tracks",
				"total": 59
			},
			"type": "playlist",
			"uri": "spotify:user:sonymusicnl:playlist:02pFLPtnGpXnSfNKhplVSw"
		},
		{
			"collaborative": false,
			"external_urls": {
				"spotify": "http://open.spotify.com/user/armental/playlist/6ppLNMPH3emZcDR7zz4CxO"
			},
			"href": "https://api.spotify.com/v1/users/armental/playlists/6ppLNMPH3emZcDR7zz4CxO",
			"id": "6ppLNMPH3emZcDR7zz4CxO",
			"images": [
				{
					"height": 640,
					"url": "https://mosaic.scdn.co/640/c268e40405f2d6e74ee30cdb448a14773384c9491314b289f9f9ba5c64b1897fc011ff3c04427828f26e2c0d15678f3f99dabd1d21028e63c2f7f5339f46c5a9655b813ea74672d000d8dd8b926dd7fe",
					"width": 640
				},
				{
					"height": 300,
					"url": "https://mosaic.scdn.co/300/c268e40405f2d6e74ee30cdb448a14773384c9491314b289f9f9ba5c64b1897fc011ff3c04427828f26e2c0d15678f3f99dabd1d21028e63c2f7f5339f46c5a9655b813ea74672d000d8dd8b926dd7fe",
					"width": 300
				},
				{
					"height": 60,
					"url": "https://mosaic.scdn.co/60/c268e40405f2d6e74ee30cdb448a14773384c9491314b289f9f9ba5c64b1897fc011ff3c04427828f26e2c0d15678f3f99dabd1d21028e63c2f7f5339f46c5a9655b813ea74672d000d8dd8b926dd7fe",
					"width": 60
				}
			],
			"name": "Tranquility with a Beat",
			"owner": {
				"external_urls": {
					"spotify": "http://open.spotify.com/user/armental"
				},
				"href": "https://api.spotify.com/v1/users/armental",
				"id": "armental",
				"type": "user",
				"uri": "spotify:user:armental"
			},
			"public": false,
			"snapshot_id": "WWuwKVMxgoWqE+0DiqhcajiokVJspXkxoy2hGGJnceIDpetYu7wh3XDN33wqlrL4",
			"tracks": {
				"href": "https://api.spotify.com/v1/users/armental/playlists/6ppLNMPH3emZcDR7zz4CxO/tracks",
				"total": 46
			},
			"type": "playlist",
			"uri": "spotify:user:armental:playlist:6ppLNMPH3emZcDR7zz4CxO"
		},
		{
			"collaborative": false,
			"external_urls": {
				"spotify": "http://open.spotify.com/user/spotify/playlist/66oi6TpdQHk3kS7ZHOx8gX"
			},
			"href": "https://api.spotify.com/v1/users/spotify/playlists/66oi6TpdQHk3kS7ZHOx8gX",
			"id": "66oi6TpdQHk3kS7ZHOx8gX",
			"images": [
				{
					"height": null,
					"url": "https://u.scdn.co/images/pl/default/f915b486a9b00b74b9a323202ea254063b90361b",
					"width": null
				}
			],
			"name": "chill.out.brain",
			"owner": {
				"external_urls": {
					"spotify": "http://open.spotify.com/user/spotify"
				},
				"href": "https://api.spotify.com/v1/users/spotify",
				"id": "spotify",
				"type": "user",
				"uri": "spotify:user:spotify"
			},
			"public": false,
			"snapshot_id": "0uZnOgSwMdV8xzMvYurHmH5kwc7gswjonM0AOoCQEvwOMDOrFUCEqJeKKenrGfcL",
			"tracks": {
				"href": "https://api.spotify.com/v1/users/spotify/playlists/66oi6TpdQHk3kS7ZHOx8gX/tracks",
				"total": 133
			},
			"type": "playlist",
			"uri": "spotify:user:spotify:playlist:66oi6TpdQHk3kS7ZHOx8gX"
		},
		{
			"collaborative": false,
			"external_urls": {
				"spotify": "http://open.spotify.com/user/spotify/playlist/2ujjMpFriZ2nayLmrD1Jgl"
			},
			"href": "https://api.spotify.com/v1/users/spotify/playlists/2ujjMpFriZ2nayLmrD1Jgl",
			"id": "2ujjMpFriZ2nayLmrD1Jgl",
			"images": [
				{
					"height": null,
					"url": "https://u.scdn.co/images/pl/default/6e4deac05605100260556b6001cd847d5a0363d3",
					"width": null
				}
			],
			"name": "Deep Focus",
			"owner": {
				"external_urls": {
					"spotify": "http://open.spotify.com/user/spotify"
				},
				"href": "https://api.spotify.com/v1/users/spotify",
				"id": "spotify",
				"type": "user",
				"uri": "spotify:user:spotify"
			},
			"public": false,
			"snapshot_id": "btelUnQuW/ciQ3DGY3eMG57NrSYByJgjHko1dj6RQe1VKovcmwC5vIF48NLz8cga",
			"tracks": {
				"href": "https://api.spotify.com/v1/users/spotify/playlists/2ujjMpFriZ2nayLmrD1Jgl/tracks",
				"total": 113
			},
			"type": "playlist",
			"uri": "spotify:user:spotify:playlist:2ujjMpFriZ2nayLmrD1Jgl"
		},
		{
			"collaborative": false,
			"external_urls": {
				"spotify": "http://open.spotify.com/user/spotify/playlist/1WDw5izv4UhpobNdGXQug7"
			},
			"href": "https://api.spotify.com/v1/users/spotify/playlists/1WDw5izv4UhpobNdGXQug7",
			"id": "1WDw5izv4UhpobNdGXQug7",
			"images": [
				{
					"height": null,
					"url": "https://u.scdn.co/images/pl/default/f2823d97310a87cb43dfa63222a7fa571b5386aa",
					"width": null
				}
			],
			"name": "Dinner Music",
			"owner": {
				"external_urls": {
					"spotify": "http://open.spotify.com/user/spotify"
				},
				"href": "https://api.spotify.com/v1/users/spotify",
				"id": "spotify",
				"type": "user",
				"uri": "spotify:user:spotify"
			},
			"public": false,
			"snapshot_id": "v2sZ3R9ZvJNhh+mMSKS3UPg3QKze3x3TRVe7cayJONknHdFcv1wdyji4QpCGiK1V",
			"tracks": {
				"href": "https://api.spotify.com/v1/users/spotify/playlists/1WDw5izv4UhpobNdGXQug7/tracks",
				"total": 97
			},
			"type": "playlist",
			"uri": "spotify:user:spotify:playlist:1WDw5izv4UhpobNdGXQug7"
		},
		{
			"collaborative": false,
			"external_urls": {
				"spotify": "http://open.spotify.com/user/spotify/playlist/7C49D2hDFRiWLcyFL8oCWN"
			},
			"href": "https://api.spotify.com/v1/users/spotify/playlists/7C49D2hDFRiWLcyFL8oCWN",
			"id": "7C49D2hDFRiWLcyFL8oCWN",
			"images": [
				{
					"height": null,
					"url": "https://u.scdn.co/images/pl/default/8d0b289796b963e0851948a81f748ba2ab5bca5f",
					"width": null
				}
			],
			"name": "An Instrumental Sunday",
			"owner": {
				"external_urls": {
					"spotify": "http://open.spotify.com/user/spotify"
				},
				"href": "https://api.spotify.com/v1/users/spotify",
				"id": "spotify",
				"type": "user",
				"uri": "spotify:user:spotify"
			},
			"public": false,
			"snapshot_id": "kh5X4WJmxcSMMVMIfodF8p0e4BS+TcaYUiH0byaiyaCqNAOQWsGbwn+ESE/CaSjl",
			"tracks": {
				"href": "https://api.spotify.com/v1/users/spotify/playlists/7C49D2hDFRiWLcyFL8oCWN/tracks",
				"total": 39
			},
			"type": "playlist",
			"uri": "spotify:user:spotify:playlist:7C49D2hDFRiWLcyFL8oCWN"
		},
		{
			"collaborative": false,
			"external_urls": {
				"spotify": "http://open.spotify.com/user/spotify/playlist/0mTqANDkS6KLEGGKBKXPPe"
			},
			"href": "https://api.spotify.com/v1/users/spotify/playlists/0mTqANDkS6KLEGGKBKXPPe",
			"id": "0mTqANDkS6KLEGGKBKXPPe",
			"images": [
				{
					"height": null,
					"url": "https://u.scdn.co/images/pl/default/7d5aac17f624e75d45931acbeec326424f4d7537",
					"width": null
				}
			],
			"name": "Infinite Roots",
			"owner": {
				"external_urls": {
					"spotify": "http://open.spotify.com/user/spotify"
				},
				"href": "https://api.spotify.com/v1/users/spotify",
				"id": "spotify",
				"type": "user",
				"uri": "spotify:user:spotify"
			},
			"public": false,
			"snapshot_id": "Eu+I0BdveAR1Sy5606BWC5X2lMblkeFBdHHMvKn/jPyXJENzvnnuXkNvdrrCmjdD",
			"tracks": {
				"href": "https://api.spotify.com/v1/users/spotify/playlists/0mTqANDkS6KLEGGKBKXPPe/tracks",
				"total": 326
			},
			"type": "playlist",
			"uri": "spotify:user:spotify:playlist:0mTqANDkS6KLEGGKBKXPPe"
		},
		{
			"collaborative": false,
			"external_urls": {
				"spotify": "http://open.spotify.com/user/sonymusicswitzerland/playlist/6oT0Mlp59AaLQIRofWphtX"
			},
			"href": "https://api.spotify.com/v1/users/sonymusicswitzerland/playlists/6oT0Mlp59AaLQIRofWphtX",
			"id": "6oT0Mlp59AaLQIRofWphtX",
			"images": [
				{
					"height": null,
					"url": "https://u.scdn.co/images/pl/default/d7a8ef5f4c104e2f6ae6d5e0ebb793dcb006c079",
					"width": null
				}
			],
			"name": "AMBIENT LOUNGE",
			"owner": {
				"external_urls": {
					"spotify": "http://open.spotify.com/user/sonymusicswitzerland"
				},
				"href": "https://api.spotify.com/v1/users/sonymusicswitzerland",
				"id": "sonymusicswitzerland",
				"type": "user",
				"uri": "spotify:user:sonymusicswitzerland"
			},
			"public": false,
			"snapshot_id": "z60/noYvG5OaOuGlt6NhAV25d8gwyXHRWO3NQt6itU1l/XQOcjkUbSXMyhNI8lRg",
			"tracks": {
				"href": "https://api.spotify.com/v1/users/sonymusicswitzerland/playlists/6oT0Mlp59AaLQIRofWphtX/tracks",
				"total": 52
			},
			"type": "playlist",
			"uri": "spotify:user:sonymusicswitzerland:playlist:6oT0Mlp59AaLQIRofWphtX"
		},
		{
			"collaborative": false,
			"external_urls": {
				"spotify": "http://open.spotify.com/user/spotify/playlist/6Y5oLMTb9CdZ9eO1v6ns7F"
			},
			"href": "https://api.spotify.com/v1/users/spotify/playlists/6Y5oLMTb9CdZ9eO1v6ns7F",
			"id": "6Y5oLMTb9CdZ9eO1v6ns7F",
			"images": [
				{
					"height": null,
					"url": "https://u.scdn.co/images/pl/default/53195e12bcc7c50c7c31553223957ec992793d5e",
					"width": null
				}
			],
			"name": "Night Rider",
			"owner": {
				"external_urls": {
					"spotify": "http://open.spotify.com/user/spotify"
				},
				"href": "https://api.spotify.com/v1/users/spotify",
				"id": "spotify",
				"type": "user",
				"uri": "spotify:user:spotify"
			},
			"public": false,
			"snapshot_id": "+UE6u0BTCOdIFBh11q1q8xoyjQkCwOih8UgpUi0I8es3NcvcN3yn4Ynbg01L+pJ6",
			"tracks": {
				"href": "https://api.spotify.com/v1/users/spotify/playlists/6Y5oLMTb9CdZ9eO1v6ns7F/tracks",
				"total": 197
			},
			"type": "playlist",
			"uri": "spotify:user:spotify:playlist:6Y5oLMTb9CdZ9eO1v6ns7F"
		}
	],
	"limit": 20,
	"next": "https://api.spotify.com/v1/users/armental/playlists?offset=20&limit=20",
	"offset": 0,
	"previous": null,
	"total": 59
}
